10 10
407.099 810.848 706.405 247.96 897.742 588.718 540.16 242.422 607.691 932.299 
876.56 258.282 916.321 985.125 356.88 754.298 876.706 572.029 395.912 957.866 
340.489 476.402 913.871 428.259 173.394 814.244 371.081 993.553 532.21 99.2689 
980.942 651.232 123.712 142.249 747.414 514.441 349.7 321.716 412.831 487.459 
461.533 338.342 725.393 824.343 311.063 145.856 482.341 203.98 725.677 827.005 
149.343 560.995 683.452 466.941 334.85 384.671 607.267 332.323 406.235 942.591 
784.604 64.4662 588.863 575.163 317.838 138.795 95.777 317.388 284.828 225.676 
89.0561 766.387 684.524 380.311 958.703 160.221 762.512 713.417 844.296 368.242 
395.075 979.478 556.153 973.408 432.686 811.985 160.596 217.392 27.246 287.043 
272.768 432.584 375.115 441.146 491.908 84.8724 667.751 81.1622 713.544 416.211 
